id,errorId,errorString,httpError_id,createTime,updateTime
"74","11008","Unable to connect to Backend Server","3","2016-10-07 12:48:16","2016-10-07 12:48:16"
"75","11009","Invalid credentials","2","2016-10-07 12:48:16","2016-10-07 12:48:16"
"76","11700","Default sim requires valid type","2","2016-10-07 12:48:16","2016-10-07 12:48:16"
"77","11701","Default sim requires valid customer id","2","2016-10-07 12:48:16","2016-10-07 12:48:16"
"78","11702","Default sim requires valid sim nickname","2","2016-10-07 12:48:16","2016-10-07 12:48:16"
"79","11703","Default sim requires valid sim type","2","2016-10-07 12:48:16","2016-10-07 12:48:16"
"80","11704","Default sim requires valid sim ICCID","2","2016-10-07 12:48:16","2016-10-07 12:48:16"
"81","11705","Invalid SIM ID","2","2016-10-07 12:48:16","2016-10-07 12:48:16"
"82","11706","No active subscriptions","2","2016-10-07 12:48:16","2016-10-07 12:48:16"
"83","11707","No SIM ID","2","2016-10-07 12:48:16","2016-10-07 12:48:16"
"84","11708","Purchase plan requires valid type","2","2016-10-07 12:48:16","2016-10-07 12:48:16"
"85","11709","Purchase plan requires valid plan id","2","2016-10-07 12:48:16","2016-10-07 12:48:16"
"86","11710","Purchase plan requires valid country code","2","2016-10-07 12:48:16","2016-10-07 12:48:16"
"87","11711","Purchase plan requires billing info","2","2016-10-07 12:48:16","2016-10-07 12:48:16"
"88","11712","Get plans requires valid country code","2","2016-10-07 12:48:16","2016-10-07 12:48:16"
"89","11713","Get plans requires valid current location","2","2016-10-07 12:48:16","2016-10-07 12:48:16"
"90","11714","Currently your SIM is not connected","2","2016-10-07 12:48:16","2016-10-07 12:48:16"