id,errorCode,errorString,createTime,updateTime
"1","401","Unauthorized","2015-10-19 12:48:16","2015-10-19 12:48:16"
"2","400","Bad Request","2015-10-19 12:48:16","2015-10-19 12:48:16"
"3","500","Internal Server Error","2015-10-19 12:48:16","2015-10-19 12:48:16"
"4","404","Resource Not Found","2015-10-19 12:48:16","2015-10-19 12:48:16"
"5","503","Service Unavailable","2015-10-19 12:48:16","2015-10-19 12:48:16"