id,description,type,createTime,updateTime
"1","Push Notification","PUSH","2015-11-26 12:48:16","2015-11-26 12:48:16"
"2","SMS","SMS","2015-11-26 12:48:16","2015-11-26 12:48:16"
"3","EMAIL","EMAIL","2015-11-26 12:48:16","2015-11-26 12:48:16"